<?xml version="1.0"?>
<svg xmlns="http://www.w3.org/2000/svg" id="Capa_1" enable-background="new 0 0 512 512" height="512px" viewBox="0 0 512 512" width="512px" class=""><g>
<path d="m251.282.054c-111.399 2.56-198.319 93.874-195.642 205.271 1.853 77.113 47.273 143.415 112.579 175.286 5.643 2.754 10.349 7.108 13.436 12.577l63.455 112.452c4.785 8.479 16.997 8.479 21.782 0l63.456-112.455c3.082-5.461 7.777-9.814 13.413-12.564 66.698-32.541 112.66-100.994 112.66-180.202-.001-112.257-92.294-202.958-205.139-200.365zm5.206 347.338c-81.041 0-146.973-65.931-146.973-146.972s65.932-146.973 146.973-146.973c81.04 0 146.971 65.932 146.971 146.973s-65.931 146.972-146.971 146.972z" style="fill:#455A64"/>
<path d="m232.557 393.188c-3.087-5.469-7.793-9.823-13.436-12.577-65.306-31.872-110.726-98.173-112.579-175.286-2.507-104.339 73.59-191.056 174.78-203.729-9.811-1.237-19.84-1.776-30.041-1.541-111.398 2.559-198.318 93.873-195.641 205.27 1.853 77.113 47.273 143.415 112.579 175.286 5.643 2.754 10.349 7.108 13.436 12.577l63.455 112.452c4.785 8.479 16.997 8.479 21.782 0l14.561-25.803z" style="fill:#37474F"/>
<path d="m256.001 351.238c-83.162 0-150.819-67.656-150.819-150.818s67.657-150.819 150.819-150.819c83.161 0 150.817 67.657 150.817 150.819s-67.656 150.818-150.817 150.818zm0-270.417c-65.947 0-119.599 53.652-119.599 119.599s53.652 119.599 119.599 119.599c65.946 0 119.598-53.651 119.598-119.599s-53.652-119.599-119.598-119.599z" style="fill:#37474F"/>
<path d="m152.943 261.042c-10.503-17.788-16.542-38.511-16.542-60.622s6.038-42.834 16.542-60.622c21.137-47.958 66.542-82.898 120.571-89.174-5.747-.668-11.589-1.023-17.513-1.023-83.161 0-150.818 67.657-150.818 150.819s67.657 150.818 150.818 150.818c5.924 0 11.766-.355 17.513-1.022-54.029-6.278-99.434-41.217-120.571-89.174z" style="fill:#263238"/>
<ellipse cx="256.001" cy="200.419" rx="68.841" ry="68.841" transform="matrix(.707 -.707 .707 .707 -66.737 239.722)" style="fill:#A5D6A7"/>
<path d="m233.404 200.42c0-29.85 19.102-55.313 45.719-64.835-7.231-2.587-15.013-4.007-23.122-4.007-37.959 0-68.841 30.882-68.841 68.841s30.882 68.841 68.841 68.841c8.109 0 15.891-1.42 23.122-4.007-26.618-9.521-45.719-34.984-45.719-64.833z" style="fill:#81C784"/><g>
<path d="m256 149.421c-4.267 0-7.726-3.459-7.726-7.726v-20.425c0-4.267 3.459-7.726 7.726-7.726s7.726 3.459 7.726 7.726v20.425c0 4.267-3.459 7.726-7.726 7.726z" style="fill:#0288D1"/>
<path d="m256 287.104c-4.267 0-7.726-3.459-7.726-7.726v-20.425c0-4.267 3.459-7.726 7.726-7.726s7.726 3.459 7.726 7.726v20.425c0 4.267-3.459 7.726-7.726 7.726z" style="fill:#0288D1"/>
<path d="m197.371 208.05h-20.425c-4.267 0-7.726-3.459-7.726-7.726s3.459-7.726 7.726-7.726h20.425c4.267 0 7.726 3.459 7.726 7.726s-3.459 7.726-7.726 7.726z" style="fill:#0288D1"/>
<path d="m335.054 208.05h-20.425c-4.267 0-7.726-3.459-7.726-7.726s3.459-7.726 7.726-7.726h20.425c4.267 0 7.726 3.459 7.726 7.726s-3.459 7.726-7.726 7.726z" style="fill:#0288D1"/></g></g> </svg>
